<?xml version="1.0" encoding="UTF-8"?>
<svg width="18px" height="18px" viewBox="0 0 18 18" version="1.1" xmlns="http://www.w3.org/2000/svg" xmlns:xlink="http://www.w3.org/1999/xlink">
    <!-- Generator: Sketch 53.2 (72643) - https://sketchapp.com -->
    <title>Star</title>
    <desc>Created with Sketch.</desc>
    <g id="Product-Flow" stroke="none" stroke-width="1" fill="none" fill-rule="evenodd">
        <g id="Talent-Pool" transform="translate(-1212.000000, -614.000000)" fill="#4767A0" stroke="#4767A0" stroke-width="1.2">
            <g id="Candidate-List" transform="translate(366.000000, 200.000000)">
                <g id="Candidate2" transform="translate(0.000000, 242.000000)">
                    <g id="Candidate1" transform="translate(20.000000, 20.000000)">
                        <polygon id="Star" points="835 166 830.297718 168.472136 831.195774 163.236068 827.391548 159.527864 832.648859 158.763932 835 154 837.351141 158.763932 842.608452 159.527864 838.804226 163.236068 839.702282 168.472136"></polygon>
                    </g>
                </g>
            </g>
        </g>
    </g>
</svg>